{
	"process_id" : 1412,
	"version" : "2018.3.4f1",
	"app_path" : "/home/chronix/Unity/Hub/Editor/2018.3.4f1/Editor/Unity",
	"app_contents_path" : "/home/chronix/Unity/Hub/Editor/2018.3.4f1/Editor/Data"
}